{
  "game_server_handle_type": 0,
  "game_server_ip": "127.0.0.1",
  "game_server_port": 2594,
  "login_server_alive_path": "/alive",
  "login_server_ip": "127.0.0.1",
  "login_server_key": "SUPERSECRET",
  "login_server_port": 9595,
  "login_server_register_game_server_path": "/game_server/register"
}