module UltimaGo

go 1.18

require github.com/google/uuid v1.3.0

require (
	github.com/cockroachdb/apd v1.1.0 // indirect
	github.com/fsnotify/fsnotify v1.5.4 // indirect
	github.com/gofrs/uuid v4.3.0+incompatible // indirect
	github.com/golang/snappy v0.0.1 // indirect
	github.com/hashicorp/hcl v1.0.0 // indirect
	github.com/jackc/fake v0.0.0-20150926172116-812a484cc733 // indirect
	github.com/jackc/pgx v3.6.2+incompatible // indirect
	github.com/klauspost/compress v1.13.6 // indirect
	github.com/lib/pq v1.10.7 // indirect
	github.com/magiconair/properties v1.8.6 // indirect
	github.com/mitchellh/mapstructure v1.5.0 // indirect
	github.com/montanaflynn/stats v0.0.0-20171201202039-1bf9dbcd8cbe // indirect
	github.com/pelletier/go-toml v1.9.5 // indirect
	github.com/pelletier/go-toml/v2 v2.0.5 // indirect
	github.com/pkg/errors v0.9.1 // indirect
	github.com/shopspring/decimal v1.3.1 // indirect
	github.com/spf13/afero v1.8.2 // indirect
	github.com/spf13/cast v1.5.0 // indirect
	github.com/spf13/jwalterweatherman v1.1.0 // indirect
	github.com/spf13/pflag v1.0.5 // indirect
	github.com/spf13/viper v1.13.0 // indirect
	github.com/subosito/gotenv v1.4.1 // indirect
	github.com/xdg-go/pbkdf2 v1.0.0 // indirect
	github.com/xdg-go/scram v1.1.1 // indirect
	github.com/xdg-go/stringprep v1.0.3 // indirect
	github.com/youmark/pkcs8 v0.0.0-20181117223130-1be2e3e5546d // indirect
	go.mongodb.org/mongo-driver v1.10.2 // indirect
	go.uber.org/atomic v1.10.0 // indirect
	go.uber.org/multierr v1.8.0 // indirect
	go.uber.org/zap v1.23.0 // indirect
	golang.org/x/crypto v0.0.0-20220622213112-05595931fe9d // indirect
	golang.org/x/sync v0.0.0-20210220032951-036812b2e83c // indirect
	golang.org/x/sys v0.0.0-20220520151302-bc2c85ada10a // indirect
	golang.org/x/text v0.3.7 // indirect
	gopkg.in/ini.v1 v1.67.0 // indirect
	gopkg.in/yaml.v2 v2.4.0 // indirect
	gopkg.in/yaml.v3 v3.0.1 // indirect
)
